Learning Statistics - House Prices
…
Count NA

house_prices_data |> select(-SalePrice) |>
  summarise(
    across(everything(), \(x) sum(is.na(x)))) |>
  pivot_longer(
    everything(), names_to="columns", values_to="na_count"
  ) |> filter(na_count!=0)

# A tibble: 34 × 2
   columns     na_count
   <chr>          <int>
 1 MSZoning           4
 2 LotFrontage      486
 3 Alley           2721
 4 Utilities          2
 5 Exterior1st        1
 6 Exterior2nd        1
 7 MasVnrType        24
 8 MasVnrArea        23
 9 BsmtQual          81
10 BsmtCond          82
# ℹ 24 more rows
…
